<svg id="Icon" xmlns="http://www.w3.org/2000/svg" width="23" height="23" viewBox="0 0 23 23">
  <defs>
    <style>
      .cls-1 {
        fill: #fff;
        fill-rule: evenodd;
      }
    </style>
  </defs>
  <path id="Forma_1" data-name="Forma 1" class="cls-1" d="M12.552,1A10.736,10.736,0,0,0,2.105,11.968a13.375,13.375,0,0,0,.375,3.413l-1.407-.863a0.712,0.712,0,0,0-1,.277,0.793,0.793,0,0,0,.264,1.052l3.3,2.024,0.02,0.008a0.705,0.705,0,0,0,.109.048,0.742,0.742,0,0,0,.077.026,0.734,0.734,0,0,0,.095.013A0.674,0.674,0,0,0,4,17.975c0.013,0,.025,0,0.038-0.005s0.023,0,.035,0,0.034-.01.052-0.013a0.731,0.731,0,0,0,.1-0.026A0.7,0.7,0,0,0,4.314,17.9,0.662,0.662,0,0,0,4.4,17.845a0.736,0.736,0,0,0,.074-0.057,0.746,0.746,0,0,0,.071-0.074A0.686,0.686,0,0,0,4.6,17.635c0.01-.015.023-0.026,0.031-0.042s0.007-.026.012-0.038,0.025-.039.034-0.062l1.312-3.419a0.784,0.784,0,0,0-.4-1,0.72,0.72,0,0,0-.951.425L3.964,15.254A11.966,11.966,0,0,1,3.567,12a9.242,9.242,0,0,1,8.985-9.459A9.241,9.241,0,0,1,21.537,12a9.241,9.241,0,0,1-8.985,9.458,0.771,0.771,0,0,0,0,1.539A10.744,10.744,0,0,0,23,12C23,5.935,18.312,1,12.552,1Zm-0.28,12.477a0.689,0.689,0,0,0,.23.049c0.016,0,.032.01,0.049,0.01a0.693,0.693,0,0,0,.248-0.051,0.624,0.624,0,0,0,.064-0.032,0.727,0.727,0,0,0,.168-0.117c0.011-.01.026-0.014,0.037-0.026l4.564-4.8a0.8,0.8,0,0,0,0-1.088,0.7,0.7,0,0,0-1.034,0l-4.218,4.44L8.6,10.19a0.718,0.718,0,0,0-.957.413,0.785,0.785,0,0,0,.392,1.007l4.238,1.868h0Z"/>
</svg>
