<svg id="Cross_Btn" xmlns="http://www.w3.org/2000/svg" width="21" height="21" viewBox="0 0 21 21">
  <defs>
    <style>
      .cls-1 {
        fill: #128ee8;
      }

      .cls-2 {
        fill: #fff;
        fill-rule: evenodd;
      }
    </style>
  </defs>
  <circle class="cls-1" cx="10.172" cy="10.688" r="10.047"/>
  <path id="Forma_1" data-name="Forma 1" class="cls-2" d="M13.732,15.457l-3.565-3.579L6.6,15.457,5.414,14.264l3.565-3.579L5.414,7.106,6.6,5.913l3.565,3.579,3.565-3.579L14.92,7.106l-3.565,3.579,3.565,3.579Z"/>
</svg>
