<svg xmlns="http://www.w3.org/2000/svg" width="18" height="18" viewBox="0 0 18 18">
  <defs>
    <style>
      .cls-1 {
        fill: #3683c8;
        fill-rule: evenodd;
      }
    </style>
  </defs>
  <path class="cls-1" d="M15.8,2.7H2.2A2.188,2.188,0,0,0,0,4.866V14.03A2.188,2.188,0,0,0,2.2,16.2H15.8A2.188,2.188,0,0,0,18,14.03V4.869A2.185,2.185,0,0,0,15.8,2.7ZM17,14.03a1.189,1.189,0,0,1-1.2,1.179H2.2A1.189,1.189,0,0,1,1,14.03V4.869A1.189,1.189,0,0,1,2.2,3.691H15.8a1.189,1.189,0,0,1,1.2,1.179V14.03h0Zm-5.646-4.7,4.4-3.892a0.493,0.493,0,0,0,.037-0.7A0.51,0.51,0,0,0,15.079,4.7L9.008,10.076,7.824,9.033a0.02,0.02,0,0,1-.007-0.011,0.727,0.727,0,0,0-.082-0.07L2.915,4.7a0.507,0.507,0,0,0-.711.04,0.49,0.49,0,0,0,.041.7L6.7,9.367,2.263,13.461a0.493,0.493,0,0,0-.022.7,0.518,0.518,0,0,0,.369.158,0.508,0.508,0,0,0,.343-0.132l4.5-4.153,1.222,1.076a0.507,0.507,0,0,0,.671,0L10.6,10l4.477,4.193a0.509,0.509,0,0,0,.711-0.018,0.493,0.493,0,0,0-.019-0.7Z"/>
</svg>
