<svg id="Icon" xmlns="http://www.w3.org/2000/svg" width="23" height="23" viewBox="0 0 23 23">
  <defs>
    <style>
      .cls-1 {
        fill: #fff;
        fill-rule: evenodd;
      }
    </style>
  </defs>
  <path class="cls-1" d="M22.768,9.9L11.855,2.106a0.611,0.611,0,0,0-.707,0L0.235,9.9a0.574,0.574,0,0,0-.129.815c0.2,0.26.57,0.694,0.836,0.5L11.5,4.054l10.56,7.16a0.605,0.605,0,0,0,.353.113A1.391,1.391,0,0,0,22.9,10.71,0.574,0.574,0,0,0,22.768,9.9Zm-2.892,1.073a1.054,1.054,0,0,0-.982.583v9.282H14.876V15.767A3.65,3.65,0,0,0,11.5,12.474a3.65,3.65,0,0,0-3.375,3.293v5.067H4.108V11.552a1.053,1.053,0,0,0-.982-0.583,0.591,0.591,0,0,0-.6.583v9.865a0.591,0.591,0,0,0,.6.583H9.108a0.592,0.592,0,0,0,.6-0.538,0.428,0.428,0,0,0,0-.045v-5.65a1.8,1.8,0,0,1,3.59,0v5.65a0.4,0.4,0,0,0,0,.045,0.592,0.592,0,0,0,.6.538h5.982a0.591,0.591,0,0,0,.6-0.583V11.552A0.591,0.591,0,0,0,19.876,10.968Z"/>
</svg>
