<svg id="Icon" xmlns="http://www.w3.org/2000/svg" width="23" height="23" viewBox="0 0 23 23">
  <defs>
    <style>
      .cls-1 {
        fill: #396496;
        fill-rule: evenodd;
      }
    </style>
  </defs>
  <path id="Forma_1" data-name="Forma 1" class="cls-1" d="M10,8.049V8.816a1.5,1.5,0,1,0,3,0V8.049H10Zm1.5,1.533a0.758,0.758,0,0,1-.75-0.767h1.5A0.759,0.759,0,0,1,11.5,9.583ZM10,5.749V6.132a0.375,0.375,0,1,1-.75,0V5.749H8.5V6.132a1.125,1.125,0,1,0,2.25,0V5.749H10Zm3.75,0V6.132a0.375,0.375,0,1,1-.75,0V5.749H12.25V6.132a1.125,1.125,0,1,0,2.25,0V5.749H13.75Zm1.973,6.905V12.649H13.375A0.379,0.379,0,0,1,13,12.266v-0.61a5.36,5.36,0,0,0,3.75-5.141V5.366A5.305,5.305,0,0,0,11.508,0,5.226,5.226,0,0,0,6.962,2.68l-0.057.015L6.92,2.751a5.421,5.421,0,0,0-.67,2.614v1.15A5.36,5.36,0,0,0,10,11.657v0.61a0.379,0.379,0,0,1-.375.383H7.375A3.417,3.417,0,0,0,4,16.1v4.984A1.9,1.9,0,0,0,5.875,23H19V16.1A3.416,3.416,0,0,0,15.722,12.655Zm-1.675.762h0.729l-1.324,5.75H12.724Zm1.789-9.261-1.906-1.3,1.04-.416A4.629,4.629,0,0,1,15.837,4.155ZM11.5,0.766a4.382,4.382,0,0,1,1.533.281L8.087,2.376A4.448,4.448,0,0,1,11.5.766ZM7.468,3.336l6.569-1.765a4.487,4.487,0,0,1,.356.278L7.039,4.788A4.635,4.635,0,0,1,7.468,3.336ZM7,6.516V5.628L13.078,3.2l2.913,1.985C15.993,5.243,16,5.3,16,5.366v1.15A4.5,4.5,0,1,1,7,6.516ZM6.665,19.933l-0.36,2.3H5.875a1.138,1.138,0,0,1-1.125-1.15V16.1a2.658,2.658,0,0,1,2.625-2.684h0.31l-0.9,5.75H6.25v0.767H6.665Zm1.835,2.3H7.065l1.38-8.817H9.305l1.38,8.817H8.5Zm1.551-8.9a1.15,1.15,0,0,0,.7-1.063V11.883h1.5v0.383a1.138,1.138,0,0,0,1.029,1.14l-1.326,5.76H10.965Zm4.449,8.9H11.445l-0.36-2.3H14.5A1.15,1.15,0,0,1,14.5,22.233Zm3.75,0H15.99a1.925,1.925,0,0,0,.385-1.15A1.9,1.9,0,0,0,14.5,19.166H14.224l1.324-5.75h0.078A2.658,2.658,0,0,1,18.25,16.1v6.134Z"/>
</svg>
