<svg xmlns="http://www.w3.org/2000/svg" width="61" height="61" viewBox="0 0 61 61">
  <defs>
    <style>
      .cls-1 {
        fill: #fff;
        fill-rule: evenodd;
      }
    </style>
  </defs>
  <path id="Forma_1" data-name="Forma 1" class="cls-1" d="M57.137,7.624H3.863A3.839,3.839,0,0,1,0,3.811,3.84,3.84,0,0,1,3.863,0H57.137A3.84,3.84,0,0,1,61,3.811,3.84,3.84,0,0,1,57.137,7.624ZM3.863,26.687H57.137a3.813,3.813,0,1,1,0,7.625H3.863A3.813,3.813,0,1,1,3.863,26.687Zm0,26.688H30.574a3.813,3.813,0,1,1,0,7.625H3.863A3.813,3.813,0,1,1,3.863,53.376Z"/>
</svg>
