<svg id="Icon" xmlns="http://www.w3.org/2000/svg" width="23" height="23" viewBox="0 0 23 23">
  <defs>
    <style>
      .cls-1 {
        fill: #fff;
        fill-rule: evenodd;
      }
    </style>
  </defs>
  <path class="cls-1" d="M3.569,12.539H15.682a1.039,1.039,0,1,0,0-2.078H3.569L4.921,9.117a1.035,1.035,0,0,0,0-1.469,1.05,1.05,0,0,0-1.478,0L0.306,10.765a0.99,0.99,0,0,0-.069.075l-0.015.02c-0.016.02-.032,0.04-0.046,0.062l-0.012.019c-0.014.022-.028,0.045-0.041,0.068l-0.007.014C0.1,11.049.091,11.075,0.08,11.1l0,0.01c-0.011.028-.022,0.056-0.031,0.085l0,0.011C0.034,11.237.026,11.266,0.02,11.3c0,0.009,0,.018,0,0.027,0,0.025-.009.049-0.011,0.074a1.01,1.01,0,0,0,0,.207c0,0.025.007,0.05,0.011,0.075,0,0.008,0,.017,0,0.026,0.006,0.03.014,0.059,0.022,0.088l0,0.01c0.009,0.029.019,0.058,0.031,0.086l0,0.009c0.011,0.027.024,0.053,0.037,0.078L0.124,11.99c0.013,0.024.027,0.046,0.042,0.069l0.011,0.019c0.014,0.021.03,0.042,0.046,0.062l0.015,0.02a0.99,0.99,0,0,0,.069.075l3.136,3.117a1.05,1.05,0,0,0,1.478,0,1.035,1.035,0,0,0,0-1.47ZM14.448,3a8.56,8.56,0,0,0-7.1,3.764A1.035,1.035,0,0,0,7.63,8.206a1.049,1.049,0,0,0,1.451-.283,6.422,6.422,0,1,1,.009,7.167,1.049,1.049,0,0,0-1.452-.279,1.035,1.035,0,0,0-.281,1.443A8.533,8.533,0,1,0,14.448,3Z"/>
</svg>
