<svg id="Icon" xmlns="http://www.w3.org/2000/svg" width="23" height="23" viewBox="0 0 23 23">
  <defs>
    <style>
      .cls-1 {
        fill: #396496;
        fill-rule: evenodd;
      }
    </style>
  </defs>
  <path id="Forma_1" data-name="Forma 1" class="cls-1" d="M22.617,5.657A0.38,0.38,0,0,0,23,5.28V3.018a0.38,0.38,0,0,0-.383-0.377H15.424A4.233,4.233,0,0,0,9.973.283a4.177,4.177,0,0,0-2.4,2.357H0.383A0.38,0.38,0,0,0,0,3.018V5.28a0.38,0.38,0,0,0,.383.377h1.15V19.984H0.383A0.38,0.38,0,0,0,0,20.361v2.262A0.38,0.38,0,0,0,.383,23H22.617A0.38,0.38,0,0,0,23,22.623V20.361a0.38,0.38,0,0,0-.383-0.377h-1.15V5.657h1.15ZM8.085,3.689C8.091,3.652,8.1,3.614,8.1,3.576a3.287,3.287,0,0,1,.106-0.445,3.468,3.468,0,0,1,6.583,0,3.291,3.291,0,0,1,.106.445c0.006,0.038.012,0.075,0.018,0.113a3.371,3.371,0,0,1,.035.458,3.378,3.378,0,0,1-.035.459c-0.005.038-.011,0.075-0.018,0.113a3.288,3.288,0,0,1-.106.445,3.461,3.461,0,0,1-4.325,2.221A3.422,3.422,0,0,1,8.208,5.166,3.288,3.288,0,0,1,8.1,4.721C8.1,4.683,8.091,4.645,8.085,4.608A3.411,3.411,0,0,1,8.05,4.149,3.41,3.41,0,0,1,8.085,3.689ZM12.93,8.116a4.149,4.149,0,0,0,2.5-2.459H20.7V19.984H14.567V13.951a0.38,0.38,0,0,0-.383-0.377H8.817a0.38,0.38,0,0,0-.383.377v6.032H2.3V5.657H7.569A4.2,4.2,0,0,0,12.93,8.116ZM13.8,14.328v5.655H9.2V14.328h4.6ZM0.767,4.9V3.395H7.353C7.34,3.463,7.334,3.532,7.324,3.6,7.318,3.65,7.309,3.7,7.3,3.747c-0.013.133-.021,0.267-0.021,0.4s0.008,0.268.021,0.4c0.005,0.049.014,0.1,0.02,0.146C7.334,4.765,7.34,4.834,7.353,4.9H0.767ZM22.233,20.738v1.508H0.767V20.738H22.233ZM15.646,4.9c0.013-.068.02-0.138,0.029-0.207,0.007-.049.015-0.1,0.02-0.146,0.013-.133.021-0.267,0.021-0.4s-0.008-.268-0.021-0.4c-0.005-.049-0.014-0.1-0.02-0.146-0.009-.069-0.016-0.138-0.029-0.207h6.587V4.9H15.646ZM13.8,3.018H12.65V1.886a0.38,0.38,0,0,0-.383-0.377H10.733a0.38,0.38,0,0,0-.383.377V3.018H9.2a0.38,0.38,0,0,0-.383.377V4.9A0.38,0.38,0,0,0,9.2,5.28h1.15V6.411a0.38,0.38,0,0,0,.383.377h1.533a0.38,0.38,0,0,0,.383-0.377V5.28H13.8A0.38,0.38,0,0,0,14.183,4.9V3.395A0.38,0.38,0,0,0,13.8,3.018ZM13.417,4.526h-1.15a0.38,0.38,0,0,0-.383.377V6.034H11.117V4.9a0.38,0.38,0,0,0-.383-0.377H9.583V3.772h1.15a0.38,0.38,0,0,0,.383-0.377V2.263h0.767V3.395a0.38,0.38,0,0,0,.383.377h1.15V4.526ZM6.516,9.05h-2.3a0.38,0.38,0,0,0-.383.377v3.016a0.38,0.38,0,0,0,.383.377h2.3A0.38,0.38,0,0,0,6.9,12.443V9.427A0.38,0.38,0,0,0,6.516,9.05ZM6.133,12.066H4.6V9.8H6.133v2.262ZM18.783,9.05h-2.3a0.38,0.38,0,0,0-.383.377v3.016a0.38,0.38,0,0,0,.383.377h2.3a0.38,0.38,0,0,0,.383-0.377V9.427A0.38,0.38,0,0,0,18.783,9.05ZM18.4,12.066H16.866V9.8H18.4v2.262Z"/>
</svg>
